<svg version="1.1" xmlns="http://www.w3.org/2000/svg" xmlns:xlink="http://www.w3.org/1999/xlink" x="0px" y="0px"
	 viewBox="-285 408.9 24 24" style="enable-background:new -285 408.9 24 24;" xml:space="preserve">
<path d="M-273,432.4c-6.3,0-11.5-5.2-11.5-11.5s5.2-11.5,11.5-11.5c6.3,0,11.5,5.2,11.5,11.5S-266.7,432.4-273,432.4z M-273,410.4
	c-5.8,0-10.5,4.7-10.5,10.5s4.7,10.5,10.5,10.5c5.8,0,10.5-4.7,10.5-10.5S-267.2,410.4-273,410.4z"/>
<path d="M-268.4,426.1c-0.2,0-0.4-0.1-0.5-0.2l-9.1-9.1c-0.3-0.3-0.3-0.7,0-1c0.3-0.3,0.7-0.3,1,0l9.1,9.1c0.3,0.3,0.3,0.7,0,1
	C-268.1,426-268.2,426.1-268.4,426.1z"/>
<path d="M-277.5,426.1c-0.2,0-0.4-0.1-0.5-0.2c-0.3-0.3-0.3-0.7,0-1l9.1-9.1c0.3-0.3,0.7-0.3,1,0s0.3,0.7,0,1l-9.1,9.1
	C-277.2,426-277.3,426.1-277.5,426.1z"/>
</svg>
