<svg width="135" height="47" viewBox="0 0 135 47" fill="none" xmlns="http://www.w3.org/2000/svg">
<path fill-rule="evenodd" clip-rule="evenodd" d="M6.79727 6.486C-0.101365 13.4262 -0.0292475 23.6015 0.00549188 28.4912L0.00900979 41.3183H6.14821H16.3805V46.6556H22.5197V41.3183H26.13C34.3003 41.3183 40.9474 34.6781 40.9474 26.5172V22.5235H34.8078V26.5172C34.8078 31.2972 30.9152 35.1859 26.13 35.1859H22.5197V30.7564C22.5197 19.4057 27.7887 17.0794 35.7009 17.0794H40.9474V10.947H35.7009C22.7 10.947 16.3805 17.4269 16.3805 30.7564V35.1859H6.14821V29.2195L6.14469 28.4482C6.11523 24.3864 6.05543 15.9356 11.1538 10.8069C14.2368 7.70493 18.9323 6.13284 25.1098 6.13284H40.9474V0H25.1098C17.2362 0 11.0755 2.18221 6.79727 6.486Z" fill="#3EAAA2"/>
<path fill-rule="evenodd" clip-rule="evenodd" d="M92.7708 34.0924C93.2716 33.1774 93.5218 32.1509 93.5218 31.0123C93.5218 29.8848 93.2716 28.8635 92.7708 27.9481C92.2699 27.0331 91.5804 26.3123 90.7018 25.7857C89.8232 25.259 88.8566 24.9959 87.8021 24.9959C86.7366 24.9959 85.7648 25.259 84.8862 25.7857C84.0072 26.3123 83.315 27.0331 82.8093 27.9481C82.3032 28.8635 82.0503 29.8848 82.0503 31.0123C82.0503 32.1509 82.3032 33.1774 82.8093 34.0924C83.315 35.0073 84.0072 35.7255 84.8862 36.2469C85.7648 36.7683 86.7366 37.0288 87.8021 37.0288C88.8566 37.0288 89.8232 36.7683 90.7018 36.2469C91.5804 35.7255 92.2699 35.0073 92.7708 34.0924ZM92.0923 23.5674C93.3861 24.3388 94.4063 25.3789 95.1521 26.6874C95.897 27.996 96.2703 29.4376 96.2703 31.0123C96.2703 32.587 95.9001 34.0313 95.16 35.3451C94.4194 36.6593 93.3997 37.6991 92.1007 38.4651C90.8008 39.2312 89.3576 39.6142 87.7706 39.6142C86.1941 39.6142 84.7615 39.2312 83.4726 38.4651C82.1841 37.6991 81.1666 36.6593 80.4212 35.3451C79.6759 34.0313 79.303 32.587 79.303 31.0123C79.303 29.4376 79.6728 27.996 80.4133 26.6874C81.1534 25.3789 82.1709 24.3388 83.4651 23.5674C84.7588 22.7961 86.1941 22.4104 87.7706 22.4104C89.3576 22.4104 90.7982 22.7961 92.0923 23.5674ZM113.126 34.0924C113.627 33.1774 113.877 32.1509 113.877 31.0123C113.877 29.8848 113.627 28.8635 113.126 27.9481C112.625 27.0331 111.936 26.3123 111.057 25.7857C110.178 25.259 109.212 24.9959 108.157 24.9959C107.092 24.9959 106.12 25.259 105.241 25.7857C104.362 26.3123 103.67 27.0331 103.165 27.9481C102.658 28.8635 102.406 29.8848 102.406 31.0123C102.406 32.1509 102.658 33.1774 103.165 34.0924C103.67 35.0073 104.362 35.7255 105.241 36.2469C106.12 36.7683 107.092 37.0288 108.157 37.0288C109.212 37.0288 110.178 36.7683 111.057 36.2469C111.936 35.7255 112.625 35.0073 113.126 34.0924ZM112.447 23.5674C113.741 24.3388 114.761 25.3789 115.507 26.6874C116.252 27.996 116.625 29.4376 116.625 31.0123C116.625 32.587 116.255 34.0313 115.515 35.3451C114.774 36.6593 113.754 37.6991 112.455 38.4651C111.156 39.2312 109.712 39.6142 108.125 39.6142C106.549 39.6142 105.116 39.2312 103.827 38.4651C102.539 37.6991 101.521 36.6593 100.776 35.3451C100.031 34.0313 99.6572 32.587 99.6572 31.0123C99.6572 29.4376 100.028 27.996 100.768 26.6874C101.508 25.3789 102.526 24.3388 103.819 23.5674C105.114 22.7961 106.549 22.4104 108.125 22.4104C109.712 22.4104 111.153 22.7961 112.447 23.5674ZM63.7146 39.2431V22.9648H76.0756V25.2147H66.4467V29.3045H75.6262V31.7463H66.4467V39.2431H63.7146ZM131.444 34.0604C131.929 33.1986 132.171 32.1932 132.171 31.0441C132.171 29.895 131.929 28.8843 131.444 28.0119C130.959 27.1396 130.266 26.4614 129.367 25.9773C128.467 25.4932 127.42 25.2508 126.227 25.2508H122.728V36.7574H126.259C127.452 36.7574 128.493 36.5237 129.383 36.0555C130.272 35.5873 130.959 34.9222 131.444 34.0604ZM133.84 26.7113C134.569 27.9399 134.934 29.3683 134.934 30.9962C134.934 32.614 134.577 34.042 133.864 35.2811C133.15 36.5207 132.143 37.4756 130.844 38.1459C129.545 38.8162 128.032 39.1514 126.306 39.1514H120.011V22.8731H126.275C127.968 22.8731 129.47 23.2056 130.78 23.8706C132.09 24.5357 133.11 25.4823 133.84 26.7113ZM83.3696 5.32242C83.0996 5.79681 82.9035 6.32172 82.7777 6.89451H93.4106C93.3574 6.13899 93.0861 5.42916 92.5958 4.76413C92.1059 4.0991 91.4643 3.5698 90.671 3.17579C89.8773 2.78266 89.0277 2.58544 88.1227 2.58544C87.1426 2.58544 86.2319 2.81956 85.3906 3.2878C84.549 3.75605 83.8748 4.43425 83.3696 5.32242ZM83.961 16.0389C82.699 15.2728 81.703 14.2357 80.9734 12.9268C80.2435 11.6182 79.8789 10.1766 79.8789 8.60232C79.8789 7.03814 80.2435 5.59915 80.9734 4.28535C81.703 2.9711 82.699 1.92876 83.961 1.15743C85.2231 0.386103 86.6263 0 88.1711 0C89.6829 0 91.0549 0.377757 92.2844 1.13327C93.5148 1.88879 94.4792 2.8916 95.177 4.14171C95.8744 5.39182 96.2232 6.7456 96.2232 8.20304C96.2232 8.34184 96.2179 8.49821 96.2069 8.67392C96.1963 8.84962 96.1858 9.06485 96.1752 9.3205H82.6519C82.7408 10.2043 82.976 11.0055 83.3617 11.7219C83.8621 12.6531 84.5358 13.3713 85.3827 13.8764C86.2296 14.382 87.1373 14.6346 88.1069 14.6346C88.8417 14.6346 89.5048 14.5309 90.0963 14.3236C90.6873 14.1163 91.1987 13.8022 91.6296 13.3818C92.0615 12.9615 92.3939 12.4484 92.6283 11.8418H95.7117C95.4026 12.842 94.8863 13.749 94.1621 14.563C93.4378 15.3769 92.5566 16.0178 91.5179 16.486C90.4797 16.9538 89.3637 17.1879 88.1711 17.1879C86.6263 17.1879 85.2231 16.8054 83.961 16.0389ZM103.517 5.32242C103.247 5.79681 103.051 6.32172 102.925 6.89451H113.558C113.505 6.13899 113.233 5.42916 112.743 4.76413C112.253 4.0991 111.612 3.5698 110.818 3.17579C110.025 2.78266 109.175 2.58544 108.27 2.58544C107.29 2.58544 106.379 2.81956 105.538 3.2878C104.696 3.75605 104.022 4.43425 103.517 5.32242ZM104.107 16.0389C102.845 15.2728 101.849 14.2357 101.12 12.9268C100.39 11.6182 100.025 10.1766 100.025 8.60232C100.025 7.03814 100.39 5.59915 101.12 4.28535C101.849 2.9711 102.845 1.92876 104.107 1.15743C105.369 0.386103 106.773 0 108.317 0C109.829 0 111.201 0.377757 112.431 1.13327C113.661 1.88879 114.625 2.8916 115.323 4.14171C116.021 5.39182 116.369 6.7456 116.369 8.20304C116.369 8.34184 116.364 8.49821 116.353 8.67392C116.343 8.84962 116.332 9.06485 116.321 9.3205H102.798C102.887 10.2043 103.122 11.0055 103.508 11.7219C104.008 12.6531 104.682 13.3713 105.529 13.8764C106.376 14.382 107.284 14.6346 108.253 14.6346C108.988 14.6346 109.651 14.5309 110.243 14.3236C110.834 14.1163 111.345 13.8022 111.776 13.3818C112.208 12.9615 112.54 12.4484 112.775 11.8418H115.858C115.549 12.842 115.033 13.749 114.308 14.563C113.584 15.3769 112.703 16.0178 111.664 16.486C110.626 16.9538 109.51 17.1879 108.317 17.1879C106.773 17.1879 105.369 16.8054 104.107 16.0389ZM132.171 16.7413H120.172V4.39252e-05H122.921V13.9959H132.171V16.7413ZM65.8049 1.45217C67.1044 0.782308 68.6171 0.44672 70.3422 0.44672H76.0755V2.84108H70.3905C69.1975 2.84108 68.1567 3.07477 67.2666 3.54301C66.3779 4.01125 65.6906 4.67584 65.206 5.53765C64.7214 6.39991 64.4787 7.40492 64.4787 8.554C64.4787 9.70308 64.7214 10.7138 65.206 11.5862C65.6906 12.459 66.3827 13.1367 67.2824 13.6212C68.183 14.1053 69.2296 14.3473 70.4222 14.3473H73.3596V9.32049H69.8949V6.8945H76.0755V16.7254H70.3743C68.6808 16.7254 67.1791 16.3929 65.8691 15.7279C64.5587 15.0628 63.5389 14.1163 62.8094 12.8872C62.0799 11.6582 61.7149 10.2297 61.7149 8.60188C61.7149 6.98455 62.072 5.55654 62.7857 4.31697C63.4994 3.0774 64.5055 2.12247 65.8049 1.45217Z" fill="#3B4561"/>
</svg>
